diameter[mm],T[k],wavelength[mm],K2,radarsx[mm2],extxs[mm2]
0.01,283.15,8.44485797183,0.897966983654,5.40305521712e-14,9.83990994223e-08
0.02,283.15,8.44485797183,0.897966983654,3.45793264554e-12,7.87559170977e-07
0.03,283.15,8.44485797183,0.897966983654,3.93875963154e-11,2.66008057174e-06
0.04,283.15,8.44485797183,0.897966983654,2.21301987824e-10,6.31226600929e-06
0.05,283.15,8.44485797183,0.897966983654,8.44183822395e-10,1.23460167531e-05
0.060000000000000005,283.15,8.44485797183,0.897966983654,2.52065987251e-09,2.13707553833e-05
0.06999999999999999,283.15,8.44485797183,0.897966983654,6.35598551351e-09,3.40053982608e-05
0.08,283.15,8.44485797183,0.897966983654,1.41618744949e-08,5.08803431198e-05
0.09,283.15,8.44485797183,0.897966983654,2.87091434696e-08,7.26395252001e-05
0.09999999999999999,283.15,8.44485797183,0.897966983654,5.40191722893e-08,9.9942518086e-05
0.11,283.15,8.44485797183,0.897966983654,9.56940724071e-08,0.00013346662152
0.12,283.15,8.44485797183,0.897966983654,1.61285715761e-07,0.000173909125894
0.13,283.15,8.44485797183,0.897966983654,2.60703264783e-07,0.000221989425608
0.14,283.15,8.44485797183,0.897966983654,4.06659689483e-07,0.00027845147525
0.15000000000000002,283.15,8.44485797183,0.897966983654,6.15156520752e-07,0.000344066016989
0.16,283.15,8.44485797183,0.897966983654,9.06007743573e-07,0.000419632971759
0.17,283.15,8.44485797183,0.897966983654,1.30340171896e-06,0.000505984120692
0.18000000000000002,283.15,8.44485797183,0.897966983654,1.83650267691e-06,0.00060398534286
0.19,283.15,8.44485797183,0.897966983654,2.54008870708e-06,0.000714539469196
0.2,283.15,8.44485797183,0.897966983654,3.45523255595e-06,0.00083858890947
0.21000000000000002,283.15,8.44485797183,0.897966983654,4.63001556342e-06,0.000977118339895
0.22,283.15,8.44485797183,0.897966983654,6.12028402525e-06,0.00113115761163
0.23,283.15,8.44485797183,0.897966983654,7.99044520626e-06,0.00130178463289
0.24000000000000002,283.15,8.44485797183,0.897966983654,1.03142990511e-05,0.00149012849239
0.25,283.15,8.44485797183,0.897966983654,1.31759101904e-05,0.00169737237832
0.26,283.15,8.44485797183,0.897966983654,1.66705157804e-05,0.00192475683964
0.27,283.15,8.44485797183,0.897966983654,2.09054911768e-05,0.00217358310984
0.28,283.15,8.44485797183,0.897966983654,2.60013200002e-05,0.00244521637873
0.29000000000000004,283.15,8.44485797183,0.897966983654,3.20926370121e-05,0.00274108936656
0.3,283.15,8.44485797183,0.897966983654,3.9329293392e-05,0.00306270583805
0.31,283.15,8.44485797183,0.897966983654,4.78774812415e-05,0.00341164414868
0.32,283.15,8.44485797183,0.897966983654,5.79208639431e-05,0.00378956130437
0.33,283.15,8.44485797183,0.897966983654,6.96617952998e-05,0.00419819666483
0.34,283.15,8.44485797183,0.897966983654,8.33225369007e-05,0.00463937625411
0.35000000000000003,283.15,8.44485797183,0.897966983654,9.91465550934e-05,0.00511501586506
0.36000000000000004,283.15,8.44485797183,0.897966983654,0.000117399801009,0.00562712670314
0.37,283.15,8.44485797183,0.897966983654,0.000138372176635,0.00617781846383
0.38,283.15,8.44485797183,0.897966983654,0.000162378848329,0.00676930495143
0.39,283.15,8.44485797183,0.897966983654,0.000189761774095,0.00740390734346
0.4,283.15,8.44485797183,0.897966983654,0.000220891150101,0.00808406006505
0.41000000000000003,283.15,8.44485797183,0.897966983654,0.000256167078503,0.00881231461108
0.42000000000000004,283.15,8.44485797183,0.897966983654,0.000296021034772,0.00959134523904
0.43,283.15,8.44485797183,0.897966983654,0.000340917801158,0.0104239543503
0.44,283.15,8.44485797183,0.897966983654,0.000391356726793,0.0113130748982
0.45,283.15,8.44485797183,0.897966983654,0.000447874102223,0.0122617798679
0.46,283.15,8.44485797183,0.897966983654,0.000511044507888,0.0132732851792
0.47000000000000003,283.15,8.44485797183,0.897966983654,0.000581482968572,0.0143509537268
0.48000000000000004,283.15,8.44485797183,0.897966983654,0.000659846934167,0.0154983038596
0.49,283.15,8.44485797183,0.897966983654,0.000746838169194,0.0167190151604
0.5,283.15,8.44485797183,0.897966983654,0.000843205012935,0.0180169297575
0.51,283.15,8.44485797183,0.897966983654,0.000949744698705,0.019396065766
0.52,283.15,8.44485797183,0.897966983654,0.00106730545711,0.0208606136749
0.53,283.15,8.44485797183,0.897966983654,0.00119678863098,0.0224149510329
0.54,283.15,8.44485797183,0.897966983654,0.00133915165957,0.024063644022
0.55,283.15,8.44485797183,0.897966983654,0.00149541072378,0.0258114530033
0.56,283.15,8.44485797183,0.897966983654,0.00166664266471,0.0276633435201
0.5700000000000001,283.15,8.44485797183,0.897966983654,0.00185398876539,0.029624485382
0.5800000000000001,283.15,8.44485797183,0.897966983654,0.00205865663294,0.0317002641896
0.59,283.15,8.44485797183,0.897966983654,0.00228192399719,0.0338962868732
0.6,283.15,8.44485797183,0.897966983654,0.00252514130996,0.0362183837978
0.61,283.15,8.44485797183,0.897966983654,0.00278973671014,0.038672617772
0.62,283.15,8.44485797183,0.897966983654,0.00307721620916,0.0412652960993
0.63,283.15,8.44485797183,0.897966983654,0.003389171771,0.0440029627395
0.64,283.15,8.44485797183,0.897966983654,0.00372727970214,0.0468924162837
0.65,283.15,8.44485797183,0.897966983654,0.00409331075553,0.0499407081038
0.66,283.15,8.44485797183,0.897966983654,0.00448912927325,0.053155155398
0.67,283.15,8.44485797183,0.897966983654,0.00491670087343,0.0565433323412
0.68,283.15,8.44485797183,0.897966983654,0.00537809549422,0.0601130971045
0.6900000000000001,283.15,8.44485797183,0.897966983654,0.00587549215321,0.0638725770173
0.7000000000000001,283.15,8.44485797183,0.897966983654,0.00643370917199,0.0679242437982
0.7100000000000001,283.15,8.44485797183,0.897966983654,0.00701501321432,0.072103804478
0.72,283.15,8.44485797183,0.897966983654,0.00764009869856,0.0764996389215
0.73,283.15,8.44485797183,0.897966983654,0.00831166838156,0.0811210038337
0.74,283.15,8.44485797183,0.897966983654,0.00903257030596,0.0859774558784
0.75,283.15,8.44485797183,0.897966983654,0.0098057936984,0.0910788441911
0.76,283.15,8.44485797183,0.897966983654,0.0106344843961,0.0964353137401
0.77,283.15,8.44485797183,0.897966983654,0.011521944598,0.102057319163
0.78,283.15,8.44485797183,0.897966983654,0.0124716518908,0.107955602013
0.79,283.15,8.44485797183,0.897966983654,0.0134872503151,0.1141412195
0.8,283.15,8.44485797183,0.897966983654,0.0145725793011,0.120625508181
0.81,283.15,8.44485797183,0.897966983654,0.0157316701995,0.127420111247
0.8200000000000001,283.15,8.44485797183,0.897966983654,0.0169687540535,0.134536968764
0.8300000000000001,283.15,8.44485797183,0.897966983654,0.0182882836029,0.141988298855
0.8400000000000001,283.15,8.44485797183,0.897966983654,0.0196949293447,0.149786623738
0.85,283.15,8.44485797183,0.897966983654,0.0211936049038,0.157944717715
0.86,283.15,8.44485797183,0.897966983654,0.0227894715084,0.166475650411
0.87,283.15,8.44485797183,0.897966983654,0.0244879491862,0.175392747661
0.88,283.15,8.44485797183,0.897966983654,0.0262947336311,0.184709584398
0.89,283.15,8.44485797183,0.897966983654,0.0282158005595,0.194439977032
0.9,283.15,8.44485797183,0.897966983654,0.0302574386135,0.204597992558
0.91,283.15,8.44485797183,0.897966983654,0.0324262454255,0.215197909002
0.92,283.15,8.44485797183,0.897966983654,0.0347291529087,0.226254194342
0.93,283.15,8.44485797183,0.897966983654,0.0371734326031,0.237781528249
0.9400000000000001,283.15,8.44485797183,0.897966983654,0.0397667335485,0.249794753045
0.9500000000000001,283.15,8.44485797183,0.897966983654,0.0425170726299,0.262308869307
0.9600000000000001,283.15,8.44485797183,0.897966983654,0.0454328736254,0.275339030584
0.97,283.15,8.44485797183,0.897966983654,0.048522969118,0.28890047534
0.98,283.15,8.44485797183,0.897966983654,0.0517966156187,0.303008571778
0.99,283.15,8.44485797183,0.897966983654,0.0552635610702,0.317678733185
1.0,283.15,8.44485797183,0.897966983654,0.0589339736824,0.332926486192
1.01,283.15,8.44485797183,0.897966983654,0.0628185573205,0.34876731588
1.02,283.15,8.44485797183,0.897966983654,0.0669284896926,0.365216773748
1.03,283.15,8.44485797183,0.897966983654,0.0712755053846,0.382290343039
1.04,283.15,8.44485797183,0.897966983654,0.0758718766124,0.400003516516
1.05,283.15,8.44485797183,0.897966983654,0.0807304362642,0.418371719428
1.06,283.15,8.44485797183,0.897966983654,0.0858646484976,0.437410266685
1.07,283.15,8.44485797183,0.897966983654,0.0912885236341,0.457134365766
1.08,283.15,8.44485797183,0.897966983654,0.0970167400356,0.477559131626
1.09,283.15,8.44485797183,0.897966983654,0.103064635869,0.498699506134
1.1,283.15,8.44485797183,0.897966983654,0.109448155267,0.52057028106
1.11,283.15,8.44485797183,0.897966983654,0.116183962295,0.543186039266
1.12,283.15,8.44485797183,0.897966983654,0.123289449991,0.566561147239
1.1300000000000001,283.15,8.44485797183,0.897966983654,0.13078264656,0.590709849629
1.1400000000000001,283.15,8.44485797183,0.897966983654,0.138682359355,0.615646028763
1.1500000000000001,283.15,8.44485797183,0.897966983654,0.147008149836,0.64138343325
1.1600000000000001,283.15,8.44485797183,0.897966983654,0.15578029647,0.66793557282
1.17,283.15,8.44485797183,0.897966983654,0.165019825472,0.695315688198
1.18,283.15,8.44485797183,0.897966983654,0.174748605917,0.723536766329
1.19,283.15,8.44485797183,0.897966983654,0.18498920584,0.752611603441
1.2,283.15,8.44485797183,0.897966983654,0.195765037996,0.782552771658
1.21,283.15,8.44485797183,0.897966983654,0.207100277452,0.813372556244
1.22,283.15,8.44485797183,0.897966983654,0.219019860071,0.845083182931
1.23,283.15,8.44485797183,0.897966983654,0.23154959139,0.877696572886
1.24,283.15,8.44485797183,0.897966983654,0.244716001058,0.911224602066
1.25,283.15,8.44485797183,0.897966983654,0.258546359101,0.945678953614
1.26,283.15,8.44485797183,0.897966983654,0.273068852651,0.981071286983
1.27,283.15,8.44485797183,0.897966983654,0.288312319146,1.01741319946
1.28,283.15,8.44485797183,0.897966983654,0.304306397334,1.05471625221
1.29,283.15,8.44485797183,0.897966983654,0.321081410538,1.09299213962
1.3,283.15,8.44485797183,0.897966983654,0.338668589003,1.13225246082
1.31,283.15,8.44485797183,0.897966983654,0.357099636052,1.17250917979
1.32,283.15,8.44485797183,0.897966983654,0.376407159765,1.2137742513
1.33,283.15,8.44485797183,0.897966983654,0.396624332414,1.25606001653
1.34,283.15,8.44485797183,0.897966983654,0.417785034872,1.29937899077
1.35,283.15,8.44485797183,0.897966983654,0.439923766592,1.34374427819
1.36,283.15,8.44485797183,0.897966983654,0.463075592647,1.38916912622
1.37,283.15,8.44485797183,0.897966983654,0.487276335125,1.43566734151
1.3800000000000001,283.15,8.44485797183,0.897966983654,0.512562102154,1.4832534392
1.3900000000000001,283.15,8.44485797183,0.897966983654,0.53896986351,1.5319423132
1.4000000000000001,283.15,8.44485797183,0.897966983654,0.566536777654,1.58174964795
1.4100000000000001,283.15,8.44485797183,0.897966983654,0.595300698666,1.63269168784
1.42,283.15,8.44485797183,0.897966983654,0.625299982711,1.68478568158
1.43,283.15,8.44485797183,0.897966983654,0.656573113237,1.73804937689
1.44,283.15,8.44485797183,0.897966983654,0.689159224827,1.79250152943
1.45,283.15,8.44485797183,0.897966983654,0.723097822826,1.84816193835
1.46,283.15,8.44485797183,0.897966983654,0.758428642313,1.90505111664
1.47,283.15,8.44485797183,0.897966983654,0.795191864146,1.96319054722
1.48,283.15,8.44485797183,0.897966983654,0.833427771323,2.02260294469
1.49,283.15,8.44485797183,0.897966983654,0.873177024289,2.08331184941
1.5,283.15,8.44485797183,0.897966983654,0.916579186573,2.14727516956
1.51,283.15,8.44485797183,0.897966983654,0.959278466097,2.21046839153
1.52,283.15,8.44485797183,0.897966983654,1.00355280252,2.27497843197
1.53,283.15,8.44485797183,0.897966983654,1.04943555259,2.34082553403
1.54,283.15,8.44485797183,0.897966983654,1.09695942861,2.40803088754
1.55,283.15,8.44485797183,0.897966983654,1.14615667358,2.47661549801
1.56,283.15,8.44485797183,0.897966983654,1.19705844238,2.54660114194
1.57,283.15,8.44485797183,0.897966983654,1.2496953516,2.61800971985
1.58,283.15,8.44485797183,0.897966983654,1.30409710932,2.69086324658
1.59,283.15,8.44485797183,0.897966983654,1.36029233524,2.76518436452
1.6,283.15,8.44485797183,0.897966983654,1.41830918657,2.84099505864
1.61,283.15,8.44485797183,0.897966983654,1.47817372387,2.91831804706
1.62,283.15,8.44485797183,0.897966983654,1.53991149554,2.99717549266
1.6300000000000001,283.15,8.44485797183,0.897966983654,1.60354700831,3.0775896671
1.6400000000000001,283.15,8.44485797183,0.897966983654,1.66910295091,3.15958233882
1.6500000000000001,283.15,8.44485797183,0.897966983654,1.73660090528,3.24317534467
1.6600000000000001,283.15,8.44485797183,0.897966983654,1.80606101506,3.3283899616
1.6700000000000002,283.15,8.44485797183,0.897966983654,1.87750140266,3.41524658469
1.68,283.15,8.44485797183,0.897966983654,1.95093957742,3.50376552869
1.69,283.15,8.44485797183,0.897966983654,2.02639048045,3.59396599917
1.7,283.15,8.44485797183,0.897966983654,2.10386790234,3.68586673012
1.71,283.15,8.44485797183,0.897966983654,2.18338352875,3.77948524559
1.72,283.15,8.44485797183,0.897966983654,2.26494739448,3.87483825483
1.73,283.15,8.44485797183,0.897966983654,2.34856754266,3.97194105533
1.74,283.15,8.44485797183,0.897966983654,2.43425029135,4.07080863087
1.75,283.15,8.44485797183,0.897966983654,2.5219993285,4.17145355044
1.76,283.15,8.44485797183,0.897966983654,2.61181735357,4.2738878464
1.77,283.15,8.44485797183,0.897966983654,2.70370375564,4.37812167254
1.78,283.15,8.44485797183,0.897966983654,2.79765706135,4.48416392297
1.79,283.15,8.44485797183,0.897966983654,2.89367232033,4.59202153963
1.8,283.15,8.44485797183,0.897966983654,2.99174364547,4.70170034822
1.81,283.15,8.44485797183,0.897966983654,3.09186177655,4.81320402416
1.82,283.15,8.44485797183,0.897966983654,3.19401633641,4.92653451104
1.83,283.15,8.44485797183,0.897966983654,3.29819395726,5.04169225304
1.84,283.15,8.44485797183,0.897966983654,3.40437902576,5.15867538718
1.85,283.15,8.44485797183,0.897966983654,3.51255415281,5.27748005143
1.86,283.15,8.44485797183,0.897966983654,3.62269923014,5.39810113304
1.87,283.15,8.44485797183,0.897966983654,3.7347922597,5.52053098402
1.8800000000000001,283.15,8.44485797183,0.897966983654,3.84880857541,5.6447600908
1.8900000000000001,283.15,8.44485797183,0.897966983654,3.96472189828,5.77077667471
1.9000000000000001,283.15,8.44485797183,0.897966983654,4.08250306474,5.89856797538
1.9100000000000001,283.15,8.44485797183,0.897966983654,4.20212148863,6.02811795215
1.9200000000000002,283.15,8.44485797183,0.897966983654,4.32354417819,6.15940914225
1.93,283.15,8.44485797183,0.897966983654,4.4467354946,6.29242282561
1.94,283.15,8.44485797183,0.897966983654,4.57165898988,6.42713666161
1.95,283.15,8.44485797183,0.897966983654,4.69827526989,6.56352874828
1.96,283.15,8.44485797183,0.897966983654,4.82654393698,6.70157356024
1.97,283.15,8.44485797183,0.897966983654,4.95642091056,6.84124421035
1.98,283.15,8.44485797183,0.897966983654,5.0878632125,6.98251257917
1.99,283.15,8.44485797183,0.897966983654,5.22082353909,7.12534821594
2.0,283.15,8.44485797183,0.897966983654,5.35525427755,7.26971930376
2.01,283.15,8.44485797183,0.897966983654,5.49110643978,7.41559347178
2.02,283.15,8.44485797183,0.897966983654,5.62832969933,7.56293492406
2.03,283.15,8.44485797183,0.897966983654,5.76687126509,7.71170815146
2.04,283.15,8.44485797183,0.897966983654,5.90667773216,7.86187591298
2.05,283.15,8.44485797183,0.897966983654,6.04769431886,8.01339990505
2.0599999999999996,283.15,8.44485797183,0.897966983654,6.18986640719,8.16624018287
2.07,283.15,8.44485797183,0.897966983654,6.33313702463,8.32035645483
2.0799999999999996,283.15,8.44485797183,0.897966983654,6.47744790041,8.47570718695
2.09,283.15,8.44485797183,0.897966983654,6.6227420421,8.63224992072
2.0999999999999996,283.15,8.44485797183,0.897966983654,6.76896013648,8.789941459
2.11,283.15,8.44485797183,0.897966983654,6.91604264467,8.94873901922
2.1199999999999997,283.15,8.44485797183,0.897966983654,7.06392927548,9.10859763843
2.13,283.15,8.44485797183,0.897966983654,7.21255924877,9.2694734583
2.1399999999999997,283.15,8.44485797183,0.897966983654,7.36187268231,9.43132094458
2.15,283.15,8.44485797183,0.897966983654,7.5118081745,9.59409567249
2.1599999999999997,283.15,8.44485797183,0.897966983654,7.66230471125,9.75775184882
2.17,283.15,8.44485797183,0.897966983654,7.81330078389,9.92224458732
2.1799999999999997,283.15,8.44485797183,0.897966983654,7.96473526279,10.0875287658
2.19,283.15,8.44485797183,0.897966983654,8.11654679896,10.2535583682
2.1999999999999997,283.15,8.44485797183,0.897966983654,8.26867511154,10.4202895328
2.21,283.15,8.44485797183,0.897966983654,8.42105879539,10.5876766731
2.2199999999999998,283.15,8.44485797183,0.897966983654,8.57363831509,10.7556759952
2.23,283.15,8.44485797183,0.897966983654,8.72635241824,10.9242438469
2.2399999999999998,283.15,8.44485797183,0.897966983654,8.87914216829,11.0933359935
2.25,283.15,8.44485797183,0.897966983654,9.03194779923,11.2629102651
2.26,283.15,8.44485797183,0.897966983654,9.18471153522,11.432924229
2.27,283.15,8.44485797183,0.897966983654,9.3373738308,11.603336187
2.28,283.15,8.44485797183,0.897966983654,9.48987870738,11.7741050462
2.29,283.15,8.44485797183,0.897966983654,9.64216903498,11.9451913477
2.3,283.15,8.44485797183,0.897966983654,9.79418913735,12.1165546858
2.31,283.15,8.44485797183,0.897966983654,9.94588182332,12.2881566443
2.32,283.15,8.44485797183,0.897966983654,10.0971946295,12.4599610809
2.3299999999999996,283.15,8.44485797183,0.897966983654,10.2480729923,12.6319291843
2.34,283.15,8.44485797183,0.897966983654,10.3984621456,12.8040263586
2.3499999999999996,283.15,8.44485797183,0.897966983654,10.5483137215,12.9762178209
2.36,283.15,8.44485797183,0.897966983654,10.6975737948,13.148468581
2.3699999999999997,283.15,8.44485797183,0.897966983654,10.8461923136,13.3207463293
2.38,283.15,8.44485797183,0.897966983654,10.9941195889,13.4930192611
2.3899999999999997,283.15,8.44485797183,0.897966983654,11.1413079953,13.6652560029
2.4,283.15,8.44485797183,0.897966983654,11.287708945,13.8374265509
2.4099999999999997,283.15,8.44485797183,0.897966983654,11.4332769686,14.0095028633
2.42,283.15,8.44485797183,0.897966983654,11.5779651227,14.1814565378
2.4299999999999997,283.15,8.44485797183,0.897966983654,11.7217290018,14.3532609446
2.44,283.15,8.44485797183,0.897966983654,11.8645229181,14.5248893028
2.4499999999999997,283.15,8.44485797183,0.897966983654,12.0063058792,14.6963171558
2.46,283.15,8.44485797183,0.897966983654,12.1470366042,14.8675219727
2.4699999999999998,283.15,8.44485797183,0.897966983654,12.2866716184,15.0384791133
2.48,283.15,8.44485797183,0.897966983654,12.4251711842,15.2091684985
2.4899999999999998,283.15,8.44485797183,0.897966983654,12.5624975617,15.379568753
2.5,283.15,8.44485797183,0.897966983654,12.6986102274,15.5496584665
2.51,283.15,8.44485797183,0.897966983654,12.8334727225,15.7194220143
2.52,283.15,8.44485797183,0.897966983654,12.9670482843,15.8888387001
2.53,283.15,8.44485797183,0.897966983654,13.099302448,16.0578927318
2.54,283.15,8.44485797183,0.897966983654,13.2301983534,16.2265685702
2.55,283.15,8.44485797183,0.897966983654,13.3597034572,16.3948505143
2.56,283.15,8.44485797183,0.897966983654,13.4877837498,16.5627247063
2.57,283.15,8.44485797183,0.897966983654,13.6144074919,16.730177205
2.5799999999999996,283.15,8.44485797183,0.897966983654,13.7395444374,16.8971974545
2.59,283.15,8.44485797183,0.897966983654,13.8631605934,17.0637718182
2.5999999999999996,283.15,8.44485797183,0.897966983654,13.9852300925,17.2298904992
2.61,283.15,8.44485797183,0.897966983654,14.105722275,17.3955441795
2.6199999999999997,283.15,8.44485797183,0.897966983654,14.2246097507,17.5607236661
2.63,283.15,8.44485797183,0.897966983654,14.3418634507,17.7254199528
2.6399999999999997,283.15,8.44485797183,0.897966983654,14.4576207858,17.8897588087
2.65,283.15,8.44485797183,0.897966983654,14.571543835,18.0534734279
2.6599999999999997,283.15,8.44485797183,0.897966983654,14.683758486,18.2166861127
2.67,283.15,8.44485797183,0.897966983654,14.7942384374,18.3793905915
2.6799999999999997,283.15,8.44485797183,0.897966983654,14.9029619503,18.5415829426
2.69,283.15,8.44485797183,0.897966983654,15.0099068032,18.7032598415
2.6999999999999997,283.15,8.44485797183,0.897966983654,15.115048977,18.8644173454
2.71,283.15,8.44485797183,0.897966983654,15.2183686151,19.0250533936
2.7199999999999998,283.15,8.44485797183,0.897966983654,15.3198442628,19.1851669874
2.73,283.15,8.44485797183,0.897966983654,15.4194572544,19.3447564978
2.7399999999999998,283.15,8.44485797183,0.897966983654,15.5171853241,19.5038207046
2.75,283.15,8.44485797183,0.897966983654,15.613012831,19.6623611032
2.76,283.15,8.44485797183,0.897966983654,15.706918551,19.8203776569
2.77,283.15,8.44485797183,0.897966983654,15.7988892508,19.9778728097
2.78,283.15,8.44485797183,0.897966983654,15.888904567,20.134846842
2.79,283.15,8.44485797183,0.897966983654,15.9769490288,20.2913035751
2.8,283.15,8.44485797183,0.897966983654,16.0630065336,20.4472452071
2.81,283.15,8.44485797183,0.897966983654,16.147063171,20.6026754931
2.82,283.15,8.44485797183,0.897966983654,16.2291044396,20.7575999501
2.8299999999999996,283.15,8.44485797183,0.897966983654,16.30911422,20.9120215398
2.84,283.15,8.44485797183,0.897966983654,16.3870819609,21.0659456936
2.8499999999999996,283.15,8.44485797183,0.897966983654,16.4629926112,21.2193787822
2.86,283.15,8.44485797183,0.897966983654,16.5368343973,21.3723263047
2.8699999999999997,283.15,8.44485797183,0.897966983654,16.6085957255,21.5247949449
2.88,283.15,8.44485797183,0.897966983654,16.6782655388,21.6767910858
2.8899999999999997,283.15,8.44485797183,0.897966983654,16.7458318827,21.8283240016
2.9,283.15,8.44485797183,0.897966983654,16.8112843382,21.9793999739
2.9099999999999997,283.15,8.44485797183,0.897966983654,16.874614096,22.1300280609
2.92,283.15,8.44485797183,0.897966983654,16.935810545,22.2802165838
2.9299999999999997,283.15,8.44485797183,0.897966983654,16.994865249,22.4299751727
2.94,283.15,8.44485797183,0.897966983654,17.0517682999,22.5793114131
2.9499999999999997,283.15,8.44485797183,0.897966983654,17.1065147293,22.7282394506
2.96,283.15,8.44485797183,0.897966983654,17.1590942138,22.8767656745
2.9699999999999998,283.15,8.44485797183,0.897966983654,17.2094980506,23.0249006793
2.98,283.15,8.44485797183,0.897966983654,17.2577242192,23.1726589195
2.9899999999999998,283.15,8.44485797183,0.897966983654,17.3037597685,23.3200472889
3.0,283.15,8.44485797183,0.897966983654,17.3476045032,23.4670822183
3.01,283.15,8.44485797183,0.897966983654,17.3892496201,23.6137706088
3.02,283.15,8.44485797183,0.897966983654,17.4286886849,23.7601278504
3.03,283.15,8.44485797183,0.897966983654,17.4659210186,23.9061666108
3.04,283.15,8.44485797183,0.897966983654,17.5009382571,24.0518981142
3.05,283.15,8.44485797183,0.897966983654,17.533736745,24.197335807
3.06,283.15,8.44485797183,0.897966983654,17.564315486,24.3424948382
3.07,283.15,8.44485797183,0.897966983654,17.5926674624,24.4873868115
3.08,283.15,8.44485797183,0.897966983654,17.6187899685,24.6320254485
3.09,283.15,8.44485797183,0.897966983654,17.6426807167,24.7764262322
3.0999999999999996,283.15,8.44485797183,0.897966983654,17.6643403665,24.9206045657
3.11,283.15,8.44485797183,0.897966983654,17.6837632821,25.0645727015
3.1199999999999997,283.15,8.44485797183,0.897966983654,17.7009499339,25.2083467526
3.13,283.15,8.44485797183,0.897966983654,17.7158952992,25.3519402536
3.1399999999999997,283.15,8.44485797183,0.897966983654,17.7286016218,25.4953697469
3.15,283.15,8.44485797183,0.897966983654,17.7390688207,25.6386511577
3.1599999999999997,283.15,8.44485797183,0.897966983654,17.7472951081,25.7817989009
3.17,283.15,8.44485797183,0.897966983654,17.7532803123,25.9248293776
3.1799999999999997,283.15,8.44485797183,0.897966983654,17.7570250506,26.0677572454
3.19,283.15,8.44485797183,0.897966983654,17.7585317053,26.2106009304
3.1999999999999997,283.15,8.44485797183,0.897966983654,17.7578003767,26.3533746412
3.21,283.15,8.44485797183,0.897966983654,17.7548294582,26.4960939482
3.2199999999999998,283.15,8.44485797183,0.897966983654,17.7496279303,26.6387789966
3.23,283.15,8.44485797183,0.897966983654,17.74219154,26.7814431444
3.2399999999999998,283.15,8.44485797183,0.897966983654,17.7325270896,26.92410492
3.25,283.15,8.44485797183,0.897966983654,17.7206347337,27.0667799859
3.26,283.15,8.44485797183,0.897966983654,17.7065209846,27.2094869259
3.27,283.15,8.44485797183,0.897966983654,17.6901873368,27.3522410903
3.28,283.15,8.44485797183,0.897966983654,17.6716389309,27.4950598306
3.29,283.15,8.44485797183,0.897966983654,17.6508797184,27.6379602017
3.3,283.15,8.44485797183,0.897966983654,17.6279163297,27.7809595765
3.31,283.15,8.44485797183,0.897966983654,17.6027522761,27.9240760403
3.32,283.15,8.44485797183,0.897966983654,17.5753966265,28.0673264072
3.33,283.15,8.44485797183,0.897966983654,17.5458526053,28.210728668
3.34,283.15,8.44485797183,0.897966983654,17.514128107,28.3542979646
3.3499999999999996,283.15,8.44485797183,0.897966983654,17.480231314,28.4980541038
3.36,283.15,8.44485797183,0.897966983654,17.4441717026,28.6420151577
3.3699999999999997,283.15,8.44485797183,0.897966983654,17.4059576801,28.7861984516
3.38,283.15,8.44485797183,0.897966983654,17.3655918287,28.9306177254
3.3899999999999997,283.15,8.44485797183,0.897966983654,17.3230913232,29.0752952232
3.4,283.15,8.44485797183,0.897966983654,17.2784660035,29.2202483101
3.4099999999999997,283.15,8.44485797183,0.897966983654,17.2317216892,29.36549057
3.42,283.15,8.44485797183,0.897966983654,17.1828694128,29.5110409568
3.4299999999999997,283.15,8.44485797183,0.897966983654,17.1319267437,29.6569203464
3.44,283.15,8.44485797183,0.897966983654,17.0789008208,29.80314096
3.4499999999999997,283.15,8.44485797183,0.897966983654,17.0238095419,29.9497244678
3.46,283.15,8.44485797183,0.897966983654,16.9666597963,30.0966855866
3.4699999999999998,283.15,8.44485797183,0.897966983654,16.9074723572,30.2440430973
3.48,283.15,8.44485797183,0.897966983654,16.8462584516,30.3918139361
3.4899999999999998,283.15,8.44485797183,0.897966983654,16.7830356591,30.5400151117
3.5,283.15,8.44485797183,0.897966983654,16.7178220327,30.6886648375
3.51,283.15,8.44485797183,0.897966983654,16.6506293527,30.8377770089
3.52,283.15,8.44485797183,0.897966983654,16.5814795443,30.9873714834
3.53,283.15,8.44485797183,0.897966983654,16.5103882372,31.1374621835
3.54,283.15,8.44485797183,0.897966983654,16.4373794086,31.2880697435
3.55,283.15,8.44485797183,0.897966983654,16.3624669489,31.4392078338
3.56,283.15,8.44485797183,0.897966983654,16.2856749264,31.590892369
3.57,283.15,8.44485797183,0.897966983654,16.207027852,31.7431436162
3.58,283.15,8.44485797183,0.897966983654,16.1265434617,31.8959728552
3.59,283.15,8.44485797183,0.897966983654,16.044248032,32.0493999031
3.5999999999999996,283.15,8.44485797183,0.897966983654,15.9601642964,32.2034394584
3.61,283.15,8.44485797183,0.897966983654,15.8743198572,32.3581075474
3.6199999999999997,283.15,8.44485797183,0.897966983654,15.7867376919,32.5134187378
3.63,283.15,8.44485797183,0.897966983654,15.6974438203,32.6693890322
3.6399999999999997,283.15,8.44485797183,0.897966983654,15.6064686318,32.8260323586
3.65,283.15,8.44485797183,0.897966983654,15.5138424589,32.9833682122
3.6599999999999997,283.15,8.44485797183,0.897966983654,15.4195878167,33.141405751
3.67,283.15,8.44485797183,0.897966983654,15.3237439618,33.3001646319
3.6799999999999997,283.15,8.44485797183,0.897966983654,15.2263378839,33.4596556163
3.69,283.15,8.44485797183,0.897966983654,15.1274012113,33.619896124
3.6999999999999997,283.15,8.44485797183,0.897966983654,15.0269700061,33.7808972799
3.71,283.15,8.44485797183,0.897966983654,14.9250768977,33.9426752638
3.7199999999999998,283.15,8.44485797183,0.897966983654,14.8217595421,34.1052425198
3.73,283.15,8.44485797183,0.897966983654,14.7170489758,34.2686109789
3.7399999999999998,283.15,8.44485797183,0.897966983654,14.6109891594,34.4327972849
3.75,283.15,8.44485797183,0.897966983654,14.5036167085,34.5978118253
3.76,283.15,8.44485797183,0.897966983654,14.3917097409,34.7616918063
3.77,283.15,8.44485797183,0.897966983654,14.281694987,34.928319924
3.78,283.15,8.44485797183,0.897966983654,14.1704821466,35.0958092106
3.79,283.15,8.44485797183,0.897966983654,14.0581178325,35.2641747607
3.8,283.15,8.44485797183,0.897966983654,13.9446407262,35.4334245323
3.81,283.15,8.44485797183,0.897966983654,13.8300985452,35.6035725442
3.82,283.15,8.44485797183,0.897966983654,13.7145367941,35.7746290124
3.83,283.15,8.44485797183,0.897966983654,13.5980011641,35.9466032831
3.84,283.15,8.44485797183,0.897966983654,13.4805372566,36.1195046542
3.8499999999999996,283.15,8.44485797183,0.897966983654,13.362197497,36.2933464919
3.86,283.15,8.44485797183,0.897966983654,13.243028948,36.4681357861
3.8699999999999997,283.15,8.44485797183,0.897966983654,13.1230839637,36.6438804294
3.88,283.15,8.44485797183,0.897966983654,13.0024133385,36.8205934356
3.8899999999999997,283.15,8.44485797183,0.897966983654,12.8810688319,36.9982787742
3.9,283.15,8.44485797183,0.897966983654,12.7591098406,37.176949246
3.9099999999999997,283.15,8.44485797183,0.897966983654,12.6365816185,37.3566075524
3.92,283.15,8.44485797183,0.897966983654,12.5135486843,37.5372668349
3.9299999999999997,283.15,8.44485797183,0.897966983654,12.3900639575,37.7189306395
3.94,283.15,8.44485797183,0.897966983654,12.2661837583,37.9016054292
3.9499999999999997,283.15,8.44485797183,0.897966983654,12.1419700182,38.0852999047
3.96,283.15,8.44485797183,0.897966983654,12.0174803336,38.2700183829
3.9699999999999998,283.15,8.44485797183,0.897966983654,11.892777437,38.4557684535
3.98,283.15,8.44485797183,0.897966983654,11.7679173159,38.6425523578
3.9899999999999998,283.15,8.44485797183,0.897966983654,11.6429668232,38.8303760405
4.0,283.15,8.44485797183,0.897966983654,11.5179880203,39.0192459
4.01,283.15,8.44485797183,0.897966983654,11.3930450689,39.2091647823
4.02,283.15,8.44485797183,0.897966983654,11.2682009268,39.4001347501
4.03,283.15,8.44485797183,0.897966983654,11.1435231161,39.5921632035
4.04,283.15,8.44485797183,0.897966983654,11.0190755626,39.7852473819
4.05,283.15,8.44485797183,0.897966983654,10.8949283521,39.9793959532
4.06,283.15,8.44485797183,0.897966983654,10.7711457405,40.1746061261
4.07,283.15,8.44485797183,0.897966983654,10.647798773,40.370883464
4.08,283.15,8.44485797183,0.897966983654,10.5249539312,40.5682260522
4.09,283.15,8.44485797183,0.897966983654,10.4026818937,40.7666374317
4.1,283.15,8.44485797183,0.897966983654,10.2810516034,40.96611466
4.109999999999999,283.15,8.44485797183,0.897966983654,10.1601358475,41.1666623818
4.12,283.15,8.44485797183,0.897966983654,10.0400043807,41.3682769029
4.13,283.15,8.44485797183,0.897966983654,9.92072976478,41.5709608166
4.14,283.15,8.44485797183,0.897966983654,9.80238086518,41.7747097946
4.1499999999999995,283.15,8.44485797183,0.897966983654,9.6850322007,41.9795225329
4.16,283.15,8.44485797183,0.897966983654,9.56875852673,42.1854000724
4.17,283.15,8.44485797183,0.897966983654,9.45362931421,42.3923375781
4.18,283.15,8.44485797183,0.897966983654,9.33971994065,42.6003326261
4.1899999999999995,283.15,8.44485797183,0.897966983654,9.22710128965,42.8093847774
4.2,283.15,8.44485797183,0.897966983654,9.11585031799,43.0194868141
4.21,283.15,8.44485797183,0.897966983654,9.00603860746,43.2306371712
4.22,283.15,8.44485797183,0.897966983654,8.89774375405,43.4428318209
4.2299999999999995,283.15,8.44485797183,0.897966983654,8.79103467856,43.6560675241
4.24,283.15,8.44485797183,0.897966983654,8.68598779626,43.8703354638
4.25,283.15,8.44485797183,0.897966983654,8.58268049604,44.0856344617
4.26,283.15,8.44485797183,0.897966983654,8.48117924676,44.3019573037
4.27,283.15,8.44485797183,0.897966983654,8.38156315852,44.5192982118
4.28,283.15,8.44485797183,0.897966983654,8.28390476489,44.7376494221
4.29,283.15,8.44485797183,0.897966983654,8.18827787447,44.9570066587
4.3,283.15,8.44485797183,0.897966983654,8.09475368072,45.1773620308
4.31,283.15,8.44485797183,0.897966983654,8.00340876799,45.3987100761
4.32,283.15,8.44485797183,0.897966983654,7.91431376815,45.6210401955
4.33,283.15,8.44485797183,0.897966983654,7.82754044393,45.8443478408
4.34,283.15,8.44485797183,0.897966983654,7.74315912938,46.068620422
4.35,283.15,8.44485797183,0.897966983654,7.66124545611,46.2938559297
4.36,283.15,8.44485797183,0.897966983654,7.58186683712,46.5200398733
4.37,283.15,8.44485797183,0.897966983654,7.50509493179,46.747166588
4.38,283.15,8.44485797183,0.897966983654,7.43099844729,46.975226212
4.39,283.15,8.44485797183,0.897966983654,7.3596474165,47.2042075358
4.3999999999999995,283.15,8.44485797183,0.897966983654,7.29111037418,47.4341032721
4.41,283.15,8.44485797183,0.897966983654,7.22545375502,47.6649042824
4.42,283.15,8.44485797183,0.897966983654,7.16274596521,47.8965987467
4.43,283.15,8.44485797183,0.897966983654,7.10305090051,48.1291754047
4.4399999999999995,283.15,8.44485797183,0.897966983654,7.04643510266,48.3626241424
4.45,283.15,8.44485797183,0.897966983654,6.99296503294,48.5969369322
4.46,283.15,8.44485797183,0.897966983654,6.94269988667,48.8321026391
4.47,283.15,8.44485797183,0.897966983654,6.89570433103,49.0681061233
4.4799999999999995,283.15,8.44485797183,0.897966983654,6.85204278279,49.3049403414
4.49,283.15,8.44485797183,0.897966983654,6.81177111743,49.5425944492
4.5,283.15,8.44485797183,0.897966983654,6.77495070943,49.7810528713
4.51,283.15,8.44485797183,0.897966983654,6.74163857788,50.020307963
4.52,283.15,8.44485797183,0.897966983654,6.71189479028,50.2603449656
4.53,283.15,8.44485797183,0.897966983654,6.68577247761,50.5011542775
4.54,283.15,8.44485797183,0.897966983654,6.66332959227,50.7427247176
4.55,283.15,8.44485797183,0.897966983654,6.64461689138,50.9850429887
4.56,283.15,8.44485797183,0.897966983654,6.62968836822,51.2280970815
4.57,283.15,8.44485797183,0.897966983654,6.61859459217,51.4718768292
4.58,283.15,8.44485797183,0.897966983654,6.61138548628,51.7163677821
4.59,283.15,8.44485797183,0.897966983654,6.60810937854,51.9615590794
4.6,283.15,8.44485797183,0.897966983654,6.60881350613,52.2074395957
4.61,283.15,8.44485797183,0.897966983654,6.61354494408,52.4539955066
4.62,283.15,8.44485797183,0.897966983654,6.62234778855,52.7012164412
4.63,283.15,8.44485797183,0.897966983654,6.63526315518,52.9490889485
4.64,283.15,8.44485797183,0.897966983654,6.65233372746,53.1976031886
4.6499999999999995,283.15,8.44485797183,0.897966983654,6.67360079798,53.4467444398
4.66,283.15,8.44485797183,0.897966983654,6.69910192364,53.6965034812
4.67,283.15,8.44485797183,0.897966983654,6.72887439925,53.9468651518
4.68,283.15,8.44485797183,0.897966983654,6.76295472317,54.1978212373
4.6899999999999995,283.15,8.44485797183,0.897966983654,6.8013750443,54.4493581664
4.7,283.15,8.44485797183,0.897966983654,6.84417008449,54.7014652598
4.71,283.15,8.44485797183,0.897966983654,6.89137152428,54.9541289046
4.72,283.15,8.44485797183,0.897966983654,6.9430068206,55.2073407924
4.7299999999999995,283.15,8.44485797183,0.897966983654,6.99910493404,55.4610880442
4.74,283.15,8.44485797183,0.897966983654,7.05969312407,55.7153611729
4.75,283.15,8.44485797183,0.897966983654,7.12479589294,55.9701460778
4.76,283.15,8.44485797183,0.897966983654,7.19443661818,56.225435714
4.77,283.15,8.44485797183,0.897966983654,7.26863650825,56.4812158625
4.78,283.15,8.44485797183,0.897966983654,7.34741579719,56.7374801752
4.79,283.15,8.44485797183,0.897966983654,7.43079540084,56.9942127826
4.8,283.15,8.44485797183,0.897966983654,7.51878989932,57.2514092729
4.81,283.15,8.44485797183,0.897966983654,7.61141462689,57.5090576015
4.82,283.15,8.44485797183,0.897966983654,7.70868554936,57.7671464821
4.83,283.15,8.44485797183,0.897966983654,7.810614393,58.0256679647
4.84,283.15,8.44485797183,0.897966983654,7.91721099315,58.2846131058
4.85,283.15,8.44485797183,0.897966983654,8.02848424669,58.5439707807
4.86,283.15,8.44485797183,0.897966983654,8.14444250887,58.8037354938
4.87,283.15,8.44485797183,0.897966983654,8.26509331048,59.0638957859
4.88,283.15,8.44485797183,0.897966983654,8.39043993598,59.3244449273
4.89,283.15,8.44485797183,0.897966983654,8.52048461684,59.585374004
4.8999999999999995,283.15,8.44485797183,0.897966983654,8.65522884398,59.8466767218
4.91,283.15,8.44485797183,0.897966983654,8.79467285165,60.1083425579
4.92,283.15,8.44485797183,0.897966983654,8.93881354261,60.3703667199
4.93,283.15,8.44485797183,0.897966983654,9.08765010791,60.6327391678
4.9399999999999995,283.15,8.44485797183,0.897966983654,9.24117737349,60.8954590432
4.95,283.15,8.44485797183,0.897966983654,9.39938811705,61.158513584
4.96,283.15,8.44485797183,0.897966983654,9.56227336583,61.4218986303
4.97,283.15,8.44485797183,0.897966983654,9.729827718,61.6856108458
4.9799999999999995,283.15,8.44485797183,0.897966983654,9.90203503065,61.9496414603
4.99,283.15,8.44485797183,0.897966983654,10.0788882386,62.2139860666
5.0,283.15,8.44485797183,0.897966983654,10.2603717056,62.4786396079
5.01,283.15,8.44485797183,0.897966983654,10.4464707151,62.7435975966
5.02,283.15,8.44485797183,0.897966983654,10.6371672344,63.0088573163
5.03,283.15,8.44485797183,0.897966983654,10.8324450809,63.2744107143
5.04,283.15,8.44485797183,0.897966983654,11.0322846976,63.5402566715
5.05,283.15,8.44485797183,0.897966983654,11.2366624904,63.8063929474
5.06,283.15,8.44485797183,0.897966983654,11.4455605921,64.0728145856
5.07,283.15,8.44485797183,0.897966983654,11.5301379455,64.2271275546
5.08,283.15,8.44485797183,0.897966983654,11.7432056619,64.4913398726
5.09,283.15,8.44485797183,0.897966983654,11.9606060678,64.7557702237
5.1,283.15,8.44485797183,0.897966983654,12.1823078641,65.0204109212
5.11,283.15,8.44485797183,0.897966983654,12.4082805334,65.2852605915
5.12,283.15,8.44485797183,0.897966983654,12.6384976103,65.5503163932
5.13,283.15,8.44485797183,0.897966983654,12.8729238882,65.8155729772
5.14,283.15,8.44485797183,0.897966983654,13.1115290801,66.0810319877
5.1499999999999995,283.15,8.44485797183,0.897966983654,13.3542727216,66.3466878298
5.16,283.15,8.44485797183,0.897966983654,13.6011270481,66.6125411028
5.17,283.15,8.44485797183,0.897966983654,13.8520490102,66.8785923931
5.18,283.15,8.44485797183,0.897966983654,14.1070067846,67.1448338332
5.1899999999999995,283.15,8.44485797183,0.897966983654,14.3659575413,67.4112682557
5.2,283.15,8.44485797183,0.897966983654,14.6288613588,67.6778950238
5.21,283.15,8.44485797183,0.897966983654,14.8956794652,67.9447139941
5.22,283.15,8.44485797183,0.897966983654,15.1663697051,68.2117234609
5.2299999999999995,283.15,8.44485797183,0.897966983654,15.4408861859,68.478923222
5.24,283.15,8.44485797183,0.897966983654,15.7191897976,68.7463160943
5.25,283.15,8.44485797183,0.897966983654,16.0012298523,69.0139017756
5.26,283.15,8.44485797183,0.897966983654,16.2869642359,69.2816787012
5.27,283.15,8.44485797183,0.897966983654,16.5763418895,69.549650885
5.28,283.15,8.44485797183,0.897966983654,16.8589473421,69.8216065983
5.29,283.15,8.44485797183,0.897966983654,17.1551631281,70.0901486825
5.3,283.15,8.44485797183,0.897966983654,17.4548712513,70.3588951423
5.31,283.15,8.44485797183,0.897966983654,17.7580199688,70.6278457354
5.32,283.15,8.44485797183,0.897966983654,18.0645562744,70.8970072752
5.33,283.15,8.44485797183,0.897966983654,18.3744318118,71.1663800051
5.34,283.15,8.44485797183,0.897966983654,18.6875881823,71.4359688165
5.35,283.15,8.44485797183,0.897966983654,19.0039722207,71.7057742081
5.36,283.15,8.44485797183,0.897966983654,19.323534616,71.9758012057
5.37,283.15,8.44485797183,0.897966983654,19.6462131517,72.2460525937
5.38,283.15,8.44485797183,0.897966983654,19.9719516539,72.5165312719
5.39,283.15,8.44485797183,0.897966983654,20.3006948345,72.7872438858
5.3999999999999995,283.15,8.44485797183,0.897966983654,20.6323855627,73.0581914465
5.41,283.15,8.44485797183,0.897966983654,20.9669637141,73.329380164
5.42,283.15,8.44485797183,0.897966983654,21.3043661934,73.6008139495
5.43,283.15,8.44485797183,0.897966983654,21.6445419533,73.8724985654
5.4399999999999995,283.15,8.44485797183,0.897966983654,21.9874190819,74.1444370889
5.45,283.15,8.44485797183,0.897966983654,22.3329444712,74.4166364392
5.46,283.15,8.44485797183,0.897966983654,22.6810542576,74.6890997764
5.47,283.15,8.44485797183,0.897966983654,23.031680525,74.9618348644
5.4799999999999995,283.15,8.44485797183,0.897966983654,23.3847627428,75.2348461832
5.49,283.15,8.44485797183,0.897966983654,23.740245143,75.5081403985
5.5,283.15,8.44485797183,0.897966983654,24.0980520182,75.781721717
5.51,283.15,8.44485797183,0.897966983654,24.4581223253,76.0555975356
5.52,283.15,8.44485797183,0.897966983654,24.8203924215,76.329774614
5.53,283.15,8.44485797183,0.897966983654,25.1847880109,76.6042575099
5.54,283.15,8.44485797183,0.897966983654,25.5512562276,76.8790546351
5.55,283.15,8.44485797183,0.897966983654,25.9197201885,77.1541714423
5.56,283.15,8.44485797183,0.897966983654,26.290112247,77.4296131122
5.57,283.15,8.44485797183,0.897966983654,26.6623706211,77.705391962
5.58,283.15,8.44485797183,0.897966983654,27.0590343181,77.9787650315
5.59,283.15,8.44485797183,0.897966983654,27.4359018369,78.2551554617
5.6,283.15,8.44485797183,0.897966983654,27.8144748827,78.531899547
5.61,283.15,8.44485797183,0.897966983654,28.194683016,78.8090058868
5.62,283.15,8.44485797183,0.897966983654,28.5764578025,79.0864813717
5.63,283.15,8.44485797183,0.897966983654,28.959735326,79.3643333044
5.64,283.15,8.44485797183,0.897966983654,29.3444384025,79.6425682616
5.6499999999999995,283.15,8.44485797183,0.897966983654,29.730504805,79.9211985554
5.66,283.15,8.44485797183,0.897966983654,30.1178611649,80.2002266502
5.67,283.15,8.44485797183,0.897966983654,30.5064447322,80.479663589
5.68,283.15,8.44485797183,0.897966983654,30.8961752001,80.7595152213
5.6899999999999995,283.15,8.44485797183,0.897966983654,31.2869921315,81.0397916185
5.7,283.15,8.44485797183,0.897966983654,31.6788234014,81.3205005553
5.71,283.15,8.44485797183,0.897966983654,32.0715948345,81.6016517227
5.72,283.15,8.44485797183,0.897966983654,32.4652401341,81.8832491173
5.7299999999999995,283.15,8.44485797183,0.897966983654,32.8596843394,82.1653040487
5.74,283.15,8.44485797183,0.897966983654,33.2548652659,82.447824962
5.75,283.15,8.44485797183,0.897966983654,33.6507032631,82.7308176257
5.76,283.15,8.44485797183,0.897966983654,34.0471320978,83.0142952885
5.77,283.15,8.44485797183,0.897966983654,34.4440791569,83.2982598001
5.78,283.15,8.44485797183,0.897966983654,34.8414786483,83.5827253262
5.79,283.15,8.44485797183,0.897966983654,35.2392550618,83.8676970806
5.8,283.15,8.44485797183,0.897966983654,35.637343621,84.1531862884
5.81,283.15,8.44485797183,0.897966983654,36.0356656732,84.439198565
5.82,283.15,8.44485797183,0.897966983654,36.4341526758,84.7257429244
5.83,283.15,8.44485797183,0.897966983654,36.8327374138,85.0128304212
5.84,283.15,8.44485797183,0.897966983654,37.2313502922,85.3004671489
5.85,283.15,8.44485797183,0.897966983654,37.6299184829,85.5886603758
5.86,283.15,8.44485797183,0.897966983654,38.0283715953,85.8774213391
5.87,283.15,8.44485797183,0.897966983654,38.4266411807,86.1667571856
5.88,283.15,8.44485797183,0.897966983654,38.8246574119,86.456675234
5.89,283.15,8.44485797183,0.897966983654,39.2223437939,86.7471861707
5.8999999999999995,283.15,8.44485797183,0.897966983654,39.6196439044,87.0382940163
5.91,283.15,8.44485797183,0.897966983654,40.0164842807,87.3300121168
5.92,283.15,8.44485797183,0.897966983654,40.412790837,87.6223458154
5.93,283.15,8.44485797183,0.897966983654,40.8085006601,87.91530396
5.9399999999999995,283.15,8.44485797183,0.897966983654,41.2035441886,88.2088941664
5.95,283.15,8.44485797183,0.897966983654,41.5978551367,88.5031252591
5.96,283.15,8.44485797183,0.897966983654,41.9913563304,88.7980030659
5.97,283.15,8.44485797183,0.897966983654,42.3839968835,89.0935393017
5.9799999999999995,283.15,8.44485797183,0.897966983654,42.775696775,89.3897385262
5.99,283.15,8.44485797183,0.897966983654,43.1663952064,89.6866076246
6.0,283.15,8.44485797183,0.897966983654,43.5560254284,89.9841565878
6.01,283.15,8.44485797183,0.897966983654,43.9445249778,90.2823921987
6.02,283.15,8.44485797183,0.897966983654,44.3318330031,90.5813236733
6.03,283.15,8.44485797183,0.897966983654,44.7178667667,90.8809540627
6.04,283.15,8.44485797183,0.897966983654,45.1025783028,91.1812943218
6.05,283.15,8.44485797183,0.897966983654,45.4859038379,91.4823512036
6.06,283.15,8.44485797183,0.897966983654,45.8677793444,91.784129558
6.07,283.15,8.44485797183,0.897966983654,46.2481373085,92.0866371166
6.08,283.15,8.44485797183,0.897966983654,46.6269191431,92.3898823311
6.09,283.15,8.44485797183,0.897966983654,47.0040700708,92.6938710177
6.1,283.15,8.44485797183,0.897966983654,47.3795233769,92.998609982
6.11,283.15,8.44485797183,0.897966983654,47.7532188713,93.3041032619
6.12,283.15,8.44485797183,0.897966983654,48.1251037461,93.6103603258
6.13,283.15,8.44485797183,0.897966983654,48.4951122385,93.9173847677
6.14,283.15,8.44485797183,0.897966983654,48.8631906644,94.2251856475
6.15,283.15,8.44485797183,0.897966983654,49.2292911203,94.5337685332
6.16,283.15,8.44485797183,0.897966983654,49.5933442852,94.8431332385
6.17,283.15,8.44485797183,0.897966983654,49.9553017996,95.1532939814
6.18,283.15,8.44485797183,0.897966983654,50.3151085933,95.4642491212
6.1899999999999995,283.15,8.44485797183,0.897966983654,50.6727122477,95.7760109219
6.2,283.15,8.44485797183,0.897966983654,51.0280528542,96.0885764065
6.21,283.15,8.44485797183,0.897966983654,51.3810951895,96.4019596118
6.22,283.15,8.44485797183,0.897966983654,51.7317711296,96.7161559331
6.2299999999999995,283.15,8.44485797183,0.897966983654,52.0800463425,97.0311779188
6.24,283.15,8.44485797183,0.897966983654,52.4258638351,97.347025455
6.25,283.15,8.44485797183,0.897966983654,52.7691772723,97.6637068992
6.26,283.15,8.44485797183,0.897966983654,53.1099367735,97.9812218575
6.27,283.15,8.44485797183,0.897966983654,53.4480992565,98.2995767159
6.28,283.15,8.44485797183,0.897966983654,53.7836231014,98.6187756025
6.29,283.15,8.44485797183,0.897966983654,54.1164604666,98.9388232444
6.3,283.15,8.44485797183,0.897966983654,54.4465719731,99.2597205989
6.31,283.15,8.44485797183,0.897966983654,54.7635070483,99.5950928191
6.32,283.15,8.44485797183,0.897966983654,55.0873198164,99.9181198418
6.33,283.15,8.44485797183,0.897966983654,55.4082525935,100.242021111
6.34,283.15,8.44485797183,0.897966983654,55.7262455584,100.566794951
6.35,283.15,8.44485797183,0.897966983654,56.0412785041,100.892450829
6.36,283.15,8.44485797183,0.897966983654,56.3532990461,101.218986069
6.37,283.15,8.44485797183,0.897966983654,56.6622750188,101.546404206
6.38,283.15,8.44485797183,0.897966983654,56.9681775332,101.874709819
6.39,283.15,8.44485797183,0.897966983654,57.2709671074,102.203903263
6.4,283.15,8.44485797183,0.897966983654,57.5706077223,102.533987946
6.41,283.15,8.44485797183,0.897966983654,57.8670744216,102.864966524
6.42,283.15,8.44485797183,0.897966983654,58.1603267337,103.196839558
6.43,283.15,8.44485797183,0.897966983654,58.4503452118,103.529607991
6.4399999999999995,283.15,8.44485797183,0.897966983654,58.7370900404,103.863273171
6.45,283.15,8.44485797183,0.897966983654,59.0205441151,104.197838504
6.46,283.15,8.44485797183,0.897966983654,59.3006746371,104.533302953
6.47,283.15,8.44485797183,0.897966983654,59.5774612886,104.869669137
6.4799999999999995,283.15,8.44485797183,0.897966983654,59.8508722458,105.206934475
6.49,283.15,8.44485797183,0.897966983654,60.1208923602,105.545103772
6.5,283.15,8.44485797183,0.897966983654,60.3875032794,105.884175781
6.51,283.15,8.44485797183,0.897966983654,60.6506810255,106.224150218
6.52,283.15,8.44485797183,0.897966983654,60.9103969292,106.565024797
6.53,283.15,8.44485797183,0.897966983654,61.1666600351,106.906803403
6.54,283.15,8.44485797183,0.897966983654,61.4194236993,107.249482099
6.55,283.15,8.44485797183,0.897966983654,61.6686904757,107.593063615
6.56,283.15,8.44485797183,0.897966983654,61.9144498895,107.93754405
6.57,283.15,8.44485797183,0.897966983654,62.1566817514,108.282923505
6.58,283.15,8.44485797183,0.897966983654,62.3953755685,108.62920475
6.59,283.15,8.44485797183,0.897966983654,62.6305327416,108.976380552
6.6,283.15,8.44485797183,0.897966983654,62.862126832,109.324450344
6.61,283.15,8.44485797183,0.897966983654,63.0901659385,109.673416699
6.62,283.15,8.44485797183,0.897966983654,63.3146455373,110.023272379
6.63,283.15,8.44485797183,0.897966983654,63.5355548623,110.374018821
6.64,283.15,8.44485797183,0.897966983654,63.7528933376,110.72565343
6.65,283.15,8.44485797183,0.897966983654,63.9666608595,111.078171253
6.66,283.15,8.44485797183,0.897966983654,64.1768596677,111.431570856
6.67,283.15,8.44485797183,0.897966983654,64.3834901474,111.78585217
6.68,283.15,8.44485797183,0.897966983654,64.5865536496,112.141009434
6.6899999999999995,283.15,8.44485797183,0.897966983654,64.7860565948,112.49703863
6.7,283.15,8.44485797183,0.897966983654,64.9820170573,112.853937226
6.71,283.15,8.44485797183,0.897966983654,65.174424804,113.211703695
6.72,283.15,8.44485797183,0.897966983654,65.3632917298,113.570331166
6.7299999999999995,283.15,8.44485797183,0.897966983654,65.5486337416,113.929816842
6.74,283.15,8.44485797183,0.897966983654,65.7304766694,114.290157925
6.75,283.15,8.44485797183,0.897966983654,65.9088015082,114.651346077
6.76,283.15,8.44485797183,0.897966983654,66.0836534472,115.013379597
6.77,283.15,8.44485797183,0.897966983654,66.2550365462,115.376253249
6.78,283.15,8.44485797183,0.897966983654,66.4229649794,115.739961185
6.79,283.15,8.44485797183,0.897966983654,66.587466381,116.104499993
6.8,283.15,8.44485797183,0.897966983654,66.7485634925,116.469862661
6.81,283.15,8.44485797183,0.897966983654,66.9062660855,116.836044297
6.82,283.15,8.44485797183,0.897966983654,67.0606095387,117.203036163
6.83,283.15,8.44485797183,0.897966983654,67.2116243757,117.57083712
6.84,283.15,8.44485797183,0.897966983654,67.3593205098,117.939436032
6.85,283.15,8.44485797183,0.897966983654,67.5037348515,118.308828491
6.86,283.15,8.44485797183,0.897966983654,67.6449051021,118.679009372
6.87,283.15,8.44485797183,0.897966983654,67.7828518587,119.04996876
6.88,283.15,8.44485797183,0.897966983654,67.9176163726,119.421700521
6.89,283.15,8.44485797183,0.897966983654,68.0492302637,119.79419839
6.9,283.15,8.44485797183,0.897966983654,68.1777229064,120.167452739
6.91,283.15,8.44485797183,0.897966983654,68.3031498558,120.54145796
6.92,283.15,8.44485797183,0.897966983654,68.4255284511,120.916201418
6.93,283.15,8.44485797183,0.897966983654,68.3604314883,121.456004175
6.9399999999999995,283.15,8.44485797183,0.897966983654,68.4683528526,121.838442843
6.95,283.15,8.44485797183,0.897966983654,68.5730379289,122.221818616
6.96,283.15,8.44485797183,0.897966983654,68.6745094573,122.606125521
6.97,283.15,8.44485797183,0.897966983654,68.7728034502,122.991360021
6.9799999999999995,283.15,8.44485797183,0.897966983654,68.867959553,123.377526133
6.99,283.15,8.44485797183,0.897966983654,68.9600098726,123.764613007
7.0,283.15,8.44485797183,0.897966983654,69.0489982312,124.152627035
7.01,283.15,8.44485797183,0.897966983654,69.1349671145,124.541561343
7.02,283.15,8.44485797183,0.897966983654,69.2179557838,124.931412506
7.03,283.15,8.44485797183,0.897966983654,69.2979961003,125.32218017
7.04,283.15,8.44485797183,0.897966983654,69.3751522124,125.713862172
7.05,283.15,8.44485797183,0.897966983654,69.4494507697,126.106453101
7.06,283.15,8.44485797183,0.897966983654,69.5209477424,126.499953983
7.07,283.15,8.44485797183,0.897966983654,69.5896902593,126.894359629
7.08,283.15,8.44485797183,0.897966983654,69.6557237935,127.289671017
7.09,283.15,8.44485797183,0.897966983654,69.7190996283,127.685880316
7.1,283.15,8.44485797183,0.897966983654,69.779860058,128.082987313
7.11,283.15,8.44485797183,0.897966983654,69.8380624319,128.480991913
7.12,283.15,8.44485797183,0.897966983654,69.8937626492,128.879886335
7.13,283.15,8.44485797183,0.897966983654,69.9470143422,129.279670627
7.14,283.15,8.44485797183,0.897966983654,69.9978621955,129.680343642
7.15,283.15,8.44485797183,0.897966983654,70.0463749199,130.081900888
7.16,283.15,8.44485797183,0.897966983654,70.0925999015,130.484336222
7.17,283.15,8.44485797183,0.897966983654,70.1365958459,130.88765271
7.18,283.15,8.44485797183,0.897966983654,70.1784315961,131.291842008
7.1899999999999995,283.15,8.44485797183,0.897966983654,70.2181509226,131.696904229
7.2,283.15,8.44485797183,0.897966983654,70.2558170452,132.102835944
7.21,283.15,8.44485797183,0.897966983654,70.2915054361,132.509631646
7.22,283.15,8.44485797183,0.897966983654,70.3252637629,132.917295697
7.2299999999999995,283.15,8.44485797183,0.897966983654,70.3571553092,133.325815457
7.24,283.15,8.44485797183,0.897966983654,70.3872530181,133.735192753
7.25,283.15,8.44485797183,0.897966983654,70.4156277019,134.14542606
7.26,283.15,8.44485797183,0.897966983654,70.4423136761,134.556508912
7.27,283.15,8.44485797183,0.897966983654,70.467415031,134.968438336
7.28,283.15,8.44485797183,0.897966983654,70.4909761661,135.381212014
7.29,283.15,8.44485797183,0.897966983654,70.513070894,135.794826776
7.3,283.15,8.44485797183,0.897966983654,70.5337723438,136.209278995
7.31,283.15,8.44485797183,0.897966983654,70.5531448945,136.624565045
7.32,283.15,8.44485797183,0.897966983654,70.5712557154,137.040684526
7.33,283.15,8.44485797183,0.897966983654,70.5881882651,137.457629878
7.34,283.15,8.44485797183,0.897966983654,70.6039989861,137.875398286
7.35,283.15,8.44485797183,0.897966983654,70.6187711618,138.293985454
7.36,283.15,8.44485797183,0.897966983654,70.6325744458,138.713393783
7.37,283.15,8.44485797183,0.897966983654,70.6454821493,139.133612631
7.38,283.15,8.44485797183,0.897966983654,70.6575673698,139.554643088
7.39,283.15,8.44485797183,0.897966983654,70.6688967586,139.976477322
7.4,283.15,8.44485797183,0.897966983654,70.6795565942,140.399114564
7.41,283.15,8.44485797183,0.897966983654,70.689627524,140.822550642
7.42,283.15,8.44485797183,0.897966983654,70.6991762035,141.246781235
7.43,283.15,8.44485797183,0.897966983654,70.7082780516,141.671801395
7.4399999999999995,283.15,8.44485797183,0.897966983654,70.7170193888,142.097609577
7.45,283.15,8.44485797183,0.897966983654,70.7254637519,142.524198635
7.46,283.15,8.44485797183,0.897966983654,70.7337047687,142.951565456
7.47,283.15,8.44485797183,0.897966983654,70.7418018892,143.379706082
7.4799999999999995,283.15,8.44485797183,0.897966983654,70.7498529371,143.808618504
7.49,283.15,8.44485797183,0.897966983654,70.7579262309,144.238293054
7.5,283.15,8.44485797183,0.897966983654,70.7661096764,144.668732492
7.51,283.15,8.44485797183,0.897966983654,70.7744792195,145.099922814
7.52,283.15,8.44485797183,0.897966983654,70.7831041866,145.531867215
7.53,283.15,8.44485797183,0.897966983654,70.7920792603,145.964555526
7.54,283.15,8.44485797183,0.897966983654,70.8014787141,146.397987004
7.55,283.15,8.44485797183,0.897966983654,70.8113822131,146.832152935
7.56,283.15,8.44485797183,0.897966983654,70.8218766859,147.267052285
7.57,283.15,8.44485797183,0.897966983654,70.8330356857,147.702674316
7.58,283.15,8.44485797183,0.897966983654,70.8449412666,148.139015188
7.59,283.15,8.44485797183,0.897966983654,70.8576804517,148.576070739
7.6,283.15,8.44485797183,0.897966983654,70.8713306095,149.013834958
7.61,283.15,8.44485797183,0.897966983654,70.8859662666,149.452297162
7.62,283.15,8.44485797183,0.897966983654,70.9016839499,149.891458855
7.63,283.15,8.44485797183,0.897966983654,70.9185591351,150.331304678
7.64,283.15,8.44485797183,0.897966983654,70.9366728076,150.771835482
7.65,283.15,8.44485797183,0.897966983654,70.9561098777,151.213042092
7.66,283.15,8.44485797183,0.897966983654,70.9769407302,151.654912012
7.67,283.15,8.44485797183,0.897966983654,70.9992576147,152.097445806
7.68,283.15,8.44485797183,0.897966983654,71.0231400101,152.540626664
7.6899999999999995,283.15,8.44485797183,0.897966983654,71.0486707999,152.984455998
7.7,283.15,8.44485797183,0.897966983654,71.0759243313,153.428919285
7.71,283.15,8.44485797183,0.897966983654,71.1049880488,153.874008099
7.72,283.15,8.44485797183,0.897966983654,71.1359416263,154.319715776
7.7299999999999995,283.15,8.44485797183,0.897966983654,71.1688733103,154.766032353
7.74,283.15,8.44485797183,0.897966983654,71.2038598523,155.212943832
7.75,283.15,8.44485797183,0.897966983654,71.2409656914,155.660444332
7.76,283.15,8.44485797183,0.897966983654,71.2802962147,156.108525042
7.77,283.15,8.44485797183,0.897966983654,71.3219185795,156.557168734
7.78,283.15,8.44485797183,0.897966983654,71.365921188,157.006370023
7.79,283.15,8.44485797183,0.897966983654,71.4123746945,157.456110965
7.8,283.15,8.44485797183,0.897966983654,71.4613644131,157.906385869
7.81,283.15,8.44485797183,0.897966983654,71.5129745278,158.357175197
7.82,283.15,8.44485797183,0.897966983654,71.5672684176,158.808469616
7.83,283.15,8.44485797183,0.897966983654,71.624343707,159.260254604
7.84,283.15,8.44485797183,0.897966983654,71.6842663685,159.712512622
7.85,283.15,8.44485797183,0.897966983654,71.7471261898,160.165231857
7.86,283.15,8.44485797183,0.897966983654,71.812988073,160.618394384
7.87,283.15,8.44485797183,0.897966983654,71.8819399657,161.07198422
7.88,283.15,8.44485797183,0.897966983654,71.954059751,161.525982399
7.89,283.15,8.44485797183,0.897966983654,72.0294186972,161.980374361
7.9,283.15,8.44485797183,0.897966983654,72.1081057265,162.435139507
7.91,283.15,8.44485797183,0.897966983654,72.1901803732,162.89025429
7.92,283.15,8.44485797183,0.897966983654,72.2757284479,163.345704674
7.93,283.15,8.44485797183,0.897966983654,72.3648419974,163.801465247
7.94,283.15,8.44485797183,0.897966983654,72.4575615951,164.257513016
7.95,283.15,8.44485797183,0.897966983654,72.5539989047,164.713828737
7.96,283.15,8.44485797183,0.897966983654,71.5759245154,165.680388301
7.97,283.15,8.44485797183,0.897966983654,71.6506078906,166.157073409
7.9799999999999995,283.15,8.44485797183,0.897966983654,71.7285228054,166.634736747
7.99,283.15,8.44485797183,0.897966983654,71.8097053246,167.113387681
8.0,283.15,8.44485797183,0.897966983654,71.8942405034,167.593027079
8.01,283.15,8.44485797183,0.897966983654,71.9821563091,168.073661518
8.02,283.15,8.44485797183,0.897966983654,72.0735436769,168.555294334
8.03,283.15,8.44485797183,0.897966983654,72.1684257676,169.037929282
8.04,283.15,8.44485797183,0.897966983654,72.3274226529,169.527084355
8.05,283.15,8.44485797183,0.897966983654,72.4321431823,170.012055882
8.06,283.15,8.44485797183,0.897966983654,72.5406302082,170.498057719
8.07,283.15,8.44485797183,0.897966983654,72.6529654615,170.985104545
8.08,283.15,8.44485797183,0.897966983654,72.7692008658,171.47319727
8.09,283.15,8.44485797183,0.897966983654,72.8893852999,171.96234367
8.1,283.15,8.44485797183,0.897966983654,73.0135758625,172.452552982
8.11,283.15,8.44485797183,0.897966983654,73.1418318795,172.94382733
8.12,283.15,8.44485797183,0.897966983654,73.2741986934,173.436172396
8.13,283.15,8.44485797183,0.897966983654,73.4107258172,173.929601658
8.14,283.15,8.44485797183,0.897966983654,73.5514905805,174.424117042
8.15,283.15,8.44485797183,0.897966983654,73.6965223631,174.919725312
8.16,283.15,8.44485797183,0.897966983654,73.8458794036,175.416433625
8.17,283.15,8.44485797183,0.897966983654,73.9996022738,175.914252608
8.18,283.15,8.44485797183,0.897966983654,74.1577578599,176.413191102
8.19,283.15,8.44485797183,0.897966983654,74.3203885141,176.913250482
8.2,283.15,8.44485797183,0.897966983654,74.4875398312,177.414440396
8.209999999999999,283.15,8.44485797183,0.897966983654,74.6592620372,177.916774851
8.22,283.15,8.44485797183,0.897966983654,74.8356044608,178.420255564
8.23,283.15,8.44485797183,0.897966983654,75.0166067398,178.924894682
8.24,283.15,8.44485797183,0.897966983654,75.2023276999,179.430694322
8.25,283.15,8.44485797183,0.897966983654,75.392794576,179.937672833
8.26,283.15,8.44485797183,0.897966983654,75.5880631255,180.445832419
8.27,283.15,8.44485797183,0.897966983654,75.7881787175,180.955188066
8.28,283.15,8.44485797183,0.897966983654,75.9931867799,181.46574376
8.29,283.15,8.44485797183,0.897966983654,76.2031183995,181.97750448
8.3,283.15,8.44485797183,0.897966983654,76.4180313208,182.490491049
8.31,283.15,8.44485797183,0.897966983654,76.637953247,183.004705159
8.32,283.15,8.44485797183,0.897966983654,76.8629304792,183.520164352
8.33,283.15,8.44485797183,0.897966983654,77.0930014011,184.03687287
8.34,283.15,8.44485797183,0.897966983654,77.328211189,184.554840321
8.35,283.15,8.44485797183,0.897966983654,77.5685954388,185.07408246
8.36,283.15,8.44485797183,0.897966983654,77.8141871568,185.594605715
8.37,283.15,8.44485797183,0.897966983654,78.0650354267,186.116425774
8.38,283.15,8.44485797183,0.897966983654,78.3211608373,186.639550244
8.39,283.15,8.44485797183,0.897966983654,78.5826189653,187.163992021
8.4,283.15,8.44485797183,0.897966983654,78.8494235614,187.689762225
8.41,283.15,8.44485797183,0.897966983654,79.121639984,188.216872707
8.42,283.15,8.44485797183,0.897966983654,79.3992878608,188.745337174
8.43,283.15,8.44485797183,0.897966983654,79.6823885325,189.275167895
8.44,283.15,8.44485797183,0.897966983654,79.9709846483,189.806379962
8.45,283.15,8.44485797183,0.897966983654,80.3360368689,190.299607533
8.459999999999999,283.15,8.44485797183,0.897966983654,80.6387197581,190.832000961
8.47,283.15,8.44485797183,0.897966983654,80.9471133821,191.365748772
8.48,283.15,8.44485797183,0.897966983654,81.2612523141,191.900866132
8.49,283.15,8.44485797183,0.897966983654,81.5811891308,192.437367579
